Analysis of the current COVID-19 vaccination status across the World
…
In the health service dataset, there are only 183 distinct values. Lets check if any of these 183 values are in the Health Service Dataset but not in the COVID dataset:

anti_join(service_iso_codes, cov_iso_codes, by = "iso_code") 

## # A tibble: 1 x 1
##   iso_code
##   <chr>   
## 1 PRK

PRK is the code for North Korea. Lets do the check additionally the other way round: which values are in the COVID dataset but not in the Health Service dataset?

anti_join(cov_iso_codes, service_iso_codes, by = "iso_code")

## # A tibble: 41 x 2
##    iso_code location                       
##    <chr>    <chr>                          
##  1 AND      Andorra                        
##  2 AIA      Anguilla                       
##  3 ABW      Aruba                          
##  4 BMU      Bermuda                        
##  5 BES      Bonaire Sint Eustatius and Saba
##  6 VGB      British Virgin Islands         
##  7 CYM      Cayman Islands                 
##  8 COK      Cook Islands                   
##  9 CUW      Curacao                        
## 10 DMA      Dominica                       
## # ... with 31 more rows

North Korea is not in the list, so apparently there is no COVID data present for North Korea. This is not very surprising due to the political situation in the country. Until spring 2021, North Koreas dictator Kim Jong Un claimed that there was not a single case. Afterwards, he admitted that there were cases but still the country does not publish any numbers.

That is why, for this analysis, I will drop North Korea:

service_coverage %>%
  filter(!(iso_code == "PRK"))

## # A tibble: 182 x 2
##    iso_code essential_service_coverage
##    <chr>                         <dbl>
##  1 SOM                              25
##  2 TCD                              28
##  3 MDG                              28
##  4 SSD                              31
##  5 CAF                              33
##  6 AFG                              37
##  7 GIN                              37
##  8 NER                              37
##  9 ERI                              38
## 10 MLI                              38
## # ... with 172 more rows
…
